…
### bcdc\_get\_data

To have a quick look at spatial data, you can simply print the object:

``` r
airports <- bcdc_get_geodata("bc-airports", crs = 3857)

airports
#> Simple feature collection with 455 features and 41 fields
#> geometry type:  POINT
#> dimension:      XY
#> bbox:           xmin: -15204360 ymin: 6156650 xmax: -12788750 ymax: 8352148
#> epsg (SRID):    3857
#> proj4string:    +proj=merc +a=6378137 +b=6378137 +lat_ts=0.0 +lon_0=0.0 +x_0=0.0 +y_0=0 +k=1.0 +units=m +nadgrids=@null +wktext +no_defs
#> # A tibble: 455 x 42
#>    id    CUSTODIAN_ORG_D~ BUSINESS_CATEGO~ BUSINESS_CATEGO~
#>    <chr> <chr>            <chr>            <chr>           
#>  1 WHSE~ "Ministry of Fo~ airTransportati~ Air Transportat~
#>  2 WHSE~ "Ministry of Fo~ airTransportati~ Air Transportat~
#>  3 WHSE~ "Ministry of Fo~ airTransportati~ Air Transportat~
#>  4 WHSE~ "Ministry of Fo~ airTransportati~ Air Transportat~
#>  5 WHSE~ "Ministry of Fo~ airTransportati~ Air Transportat~
#>  6 WHSE~ "Ministry of Fo~ airTransportati~ Air Transportat~
#>  7 WHSE~ "Ministry of Fo~ airTransportati~ Air Transportat~
#>  8 WHSE~ "Ministry of Fo~ airTransportati~ Air Transportat~
#>  9 WHSE~ "Ministry of Fo~ airTransportati~ Air Transportat~
#> 10 WHSE~ "Ministry of Fo~ airTransportati~ Air Transportat~
#> # ... with 445 more rows, and 38 more variables:
#> #   OCCUPANT_TYPE_DESCRIPTION <chr>, SOURCE_DATA_ID <chr>,
#> #   SUPPLIED_SOURCE_ID_IND <chr>, AIRPORT_NAME <chr>, DESCRIPTION <chr>,
#> #   PHYSICAL_ADDRESS <chr>, ALIAS_ADDRESS <chr>, STREET_ADDRESS <chr>,
#> #   POSTAL_CODE <chr>, LOCALITY <chr>, CONTACT_PHONE <chr>,
#> #   CONTACT_EMAIL <chr>, CONTACT_FAX <chr>, WEBSITE_URL <chr>,
#> #   IMAGE_URL <chr>, LATITUDE <dbl>, LONGITUDE <dbl>, KEYWORDS <chr>,
#> #   DATE_UPDATED <chr>, SITE_GEOCODED_IND <chr>, AERODROME_STATUS <chr>,
#> #   AIRCRAFT_ACCESS_IND <chr>, DATA_SOURCE <chr>, DATA_SOURCE_YEAR <chr>,
…
If you need all the data, you need to retrieve the data using the `collect` function:

``` r
airports %>% 
  collect()
#> Simple feature collection with 455 features and 41 fields
#> geometry type:  POINT
#> dimension:      XY
#> bbox:           xmin: -15204360 ymin: 6156650 xmax: -12788750 ymax: 8352148
#> epsg (SRID):    3857
#> proj4string:    +proj=merc +a=6378137 +b=6378137 +lat_ts=0.0 +lon_0=0.0 +x_0=0.0 +y_0=0 +k=1.0 +units=m +nadgrids=@null +wktext +no_defs
#> # A tibble: 455 x 42
#>    id    CUSTODIAN_ORG_D~ BUSINESS_CATEGO~ BUSINESS_CATEGO~
#>    <chr> <chr>            <chr>            <chr>           
#>  1 WHSE~ "Ministry of Fo~ airTransportati~ Air Transportat~
#>  2 WHSE~ "Ministry of Fo~ airTransportati~ Air Transportat~
#>  3 WHSE~ "Ministry of Fo~ airTransportati~ Air Transportat~
#>  4 WHSE~ "Ministry of Fo~ airTransportati~ Air Transportat~
#>  5 WHSE~ "Ministry of Fo~ airTransportati~ Air Transportat~
#>  6 WHSE~ "Ministry of Fo~ airTransportati~ Air Transportat~
#>  7 WHSE~ "Ministry of Fo~ airTransportati~ Air Transportat~
#>  8 WHSE~ "Ministry of Fo~ airTransportati~ Air Transportat~
#>  9 WHSE~ "Ministry of Fo~ airTransportati~ Air Transportat~
#> 10 WHSE~ "Ministry of Fo~ airTransportati~ Air Transportat~
#> # ... with 445 more rows, and 38 more variables:
#> #   OCCUPANT_TYPE_DESCRIPTION <chr>, SOURCE_DATA_ID <chr>,
#> #   SUPPLIED_SOURCE_ID_IND <chr>, AIRPORT_NAME <chr>, DESCRIPTION <chr>,
#> #   PHYSICAL_ADDRESS <chr>, ALIAS_ADDRESS <chr>, STREET_ADDRESS <chr>,
#> #   POSTAL_CODE <chr>, LOCALITY <chr>, CONTACT_PHONE <chr>,
#> #   CONTACT_EMAIL <chr>, CONTACT_FAX <chr>, WEBSITE_URL <chr>,
#> #   IMAGE_URL <chr>, LATITUDE <dbl>, LONGITUDE <dbl>, KEYWORDS <chr>,
#> #   DATE_UPDATED <chr>, SITE_GEOCODED_IND <chr>, AERODROME_STATUS <chr>,
#> #   AIRCRAFT_ACCESS_IND <chr>, DATA_SOURCE <chr>, DATA_SOURCE_YEAR <chr>,
…
