…
### `bcdc_get_data()`

Once you have located the B.C. Data Catalogue record with the data you want, you can use `bcdata::bcdc_get_data()` to download and read the data from the record.  You can use the record name, permanent ID or the result from `bcdc_get_record()`. Let's look at the B.C. Highway Web Cameras data:


```r
## Get the data resource for the `bc-highway-cams` catalogue record
bcdc_get_data("bc-highway-cams")
#> # A tibble: 978 × 21
#>       id highwayNum…¹ highw…² camName caption credit orien…³ latit…⁴ longi…⁵ eleva…⁶ image…⁷ timeO…⁸
#>    <dbl> <chr>        <chr>   <chr>   <chr>   <chr>  <chr>     <dbl>   <dbl>   <dbl> <chr>   <chr>  
#>  1     2 5            Coquih… Coquih… Hwy 5,…  <NA>  N          49.6   -121.     980 f4e581… 2022-0…
#>  2     5 3            <NA>    Kooten… Hwy 3,…  <NA>  E          49.1   -117.    1781 f1322d… 2022-0…
#>  3     6 16           <NA>    Smithe… Hwy 16…  <NA>  N          54.8   -127.     497 5f3cb5… 2022-0…
#>  4     7 1            Fraser… Cole R… Hwy 1 …  <NA>  E          49.1   -122.      12 771e32… 2022-0…
#>  5     8 1            Vancou… Malaha… Hwy 1 …  <NA>  N          48.6   -124.     327 a4b785… 2022-0…
#>  6     9 19           <NA>    Nanaim… Hwy 19…  <NA>  N          49.2   -124.     130 83714f… 2022-0…
#>  7    10 97           Northe… South … Hwy 97…  <NA>  N          56.1   -121.     714 55a7f6… 2022-0…
#>  8    11 1            Trans … Revels… Hwy 1 …  <NA>  NE         51.0   -118.     450 bd7314… 2022-0…
#>  9    12 1            Trans … Three … Hwy 1,…  <NA>  E          50.9   -118.     510 569d16… 2022-0…
#> 10    13 99           Peace … Peace … Hwy 99… "For … N          49.0   -123.      10 91e9eb… 2022-0…
#> # … with 968 more rows, 9 more variables: secondsSinceLastAttempt <dbl>, lastModified <chr>,
#> #   secondsSinceLastModified <dbl>, markedStale <dbl>, markedDelayed <dbl>, updatePeriodMean <dbl>,
#> #   updatePeriodStdDev <dbl>, fetchMean <dbl>, dbcMark <chr>, and abbreviated variable names
#> #   ¹​highwayNumber, ²​highwayLocationDescription, ³​orientation, ⁴​latitude, ⁵​longitude, ⁶​elevation,
#> #   ⁷​imageMD5, ⁸​timeOfLastAttempt

## OR use the permanent ID, which is better for scripts or non-interactive use
bcdc_get_data("6b39a910-6c77-476f-ac96-7b4f18849b1c")
#> # A tibble: 978 × 21
#>       id highwayNum…¹ highw…² camName caption credit orien…³ latit…⁴ longi…⁵ eleva…⁶ image…⁷ timeO…⁸
#>    <dbl> <chr>        <chr>   <chr>   <chr>   <chr>  <chr>     <dbl>   <dbl>   <dbl> <chr>   <chr>  
#>  1     2 5            Coquih… Coquih… Hwy 5,…  <NA>  N          49.6   -121.     980 f4e581… 2022-0…
#>  2     5 3            <NA>    Kooten… Hwy 3,…  <NA>  E          49.1   -117.    1781 f1322d… 2022-0…
#>  3     6 16           <NA>    Smithe… Hwy 16…  <NA>  N          54.8   -127.     497 5f3cb5… 2022-0…
#>  4     7 1            Fraser… Cole R… Hwy 1 …  <NA>  E          49.1   -122.      12 771e32… 2022-0…
#>  5     8 1            Vancou… Malaha… Hwy 1 …  <NA>  N          48.6   -124.     327 a4b785… 2022-0…
#>  6     9 19           <NA>    Nanaim… Hwy 19…  <NA>  N          49.2   -124.     130 83714f… 2022-0…
#>  7    10 97           Northe… South … Hwy 97…  <NA>  N          56.1   -121.     714 55a7f6… 2022-0…
#>  8    11 1            Trans … Revels… Hwy 1 …  <NA>  NE         51.0   -118.     450 bd7314… 2022-0…
#>  9    12 1            Trans … Three … Hwy 1,…  <NA>  E          50.9   -118.     510 569d16… 2022-0…
#> 10    13 99           Peace … Peace … Hwy 99… "For … N          49.0   -123.      10 91e9eb… 2022-0…
#> # … with 968 more rows, 9 more variables: secondsSinceLastAttempt <dbl>, lastModified <chr>,
#> #   secondsSinceLastModified <dbl>, markedStale <dbl>, markedDelayed <dbl>, updatePeriodMean <dbl>,
#> #   updatePeriodStdDev <dbl>, fetchMean <dbl>, dbcMark <chr>, and abbreviated variable names
#> #   ¹​highwayNumber, ²​highwayLocationDescription, ³​orientation, ⁴​latitude, ⁵​longitude, ⁶​elevation,
#> #   ⁷​imageMD5, ⁸​timeOfLastAttempt

## OR use the result from bcdc_get_record()
my_record <- bcdc_get_record("6b39a910-6c77-476f-ac96-7b4f18849b1c")
bcdc_get_data(my_record)
#> # A tibble: 978 × 21
#>       id highwayNum…¹ highw…² camName caption credit orien…³ latit…⁴ longi…⁵ eleva…⁶ image…⁷ timeO…⁸
#>    <dbl> <chr>        <chr>   <chr>   <chr>   <chr>  <chr>     <dbl>   <dbl>   <dbl> <chr>   <chr>  
#>  1     2 5            Coquih… Coquih… Hwy 5,…  <NA>  N          49.6   -121.     980 f4e581… 2022-0…
#>  2     5 3            <NA>    Kooten… Hwy 3,…  <NA>  E          49.1   -117.    1781 f1322d… 2022-0…
#>  3     6 16           <NA>    Smithe… Hwy 16…  <NA>  N          54.8   -127.     497 5f3cb5… 2022-0…
#>  4     7 1            Fraser… Cole R… Hwy 1 …  <NA>  E          49.1   -122.      12 771e32… 2022-0…
#>  5     8 1            Vancou… Malaha… Hwy 1 …  <NA>  N          48.6   -124.     327 a4b785… 2022-0…
#>  6     9 19           <NA>    Nanaim… Hwy 19…  <NA>  N          49.2   -124.     130 83714f… 2022-0…
#>  7    10 97           Northe… South … Hwy 97…  <NA>  N          56.1   -121.     714 55a7f6… 2022-0…
#>  8    11 1            Trans … Revels… Hwy 1 …  <NA>  NE         51.0   -118.     450 bd7314… 2022-0…
#>  9    12 1            Trans … Three … Hwy 1,…  <NA>  E          50.9   -118.     510 569d16… 2022-0…
#> 10    13 99           Peace … Peace … Hwy 99… "For … N          49.0   -123.      10 91e9eb… 2022-0…
#> # … with 968 more rows, 9 more variables: secondsSinceLastAttempt <dbl>, lastModified <chr>,
#> #   secondsSinceLastModified <dbl>, markedStale <dbl>, markedDelayed <dbl>, updatePeriodMean <dbl>,
#> #   updatePeriodStdDev <dbl>, fetchMean <dbl>, dbcMark <chr>, and abbreviated variable names
#> #   ¹​highwayNumber, ²​highwayLocationDescription, ³​orientation, ⁴​latitude, ⁵​longitude, ⁶​elevation,
#> #   ⁷​imageMD5, ⁸​timeOfLastAttempt
```
…
We see there are two data files or resources available in this record, so we need to tell `bcdc_get_data()` which one we want. When used interactively, `bcdc_get_data()` will prompt you with the list of available resources through `bcdata` and ask you to select the resource you want. The resource ID for each data set is available _in_ the metadata record ☝️:


```r
## Get the txt data resource from the `bc-schools-programs-offered-in-schools`
## catalogue record
bcdc_get_data("b1f27d1c-244a-410e-a361-931fac62a524", resource = 'a393f8cf-51ec-42c6-8449-4cea4c75385c')
#> # A tibble: 16,152 × 24
#>    Data Le…¹ Schoo…² Facil…³ Publi…⁴ Distr…⁵ Distr…⁶ Schoo…⁷ Schoo…⁸ Has E…⁹ Has C…˟ Has E…˟ Has L…˟
#>    <chr>     <chr>   <chr>   <chr>   <chr>   <chr>   <chr>   <chr>   <lgl>   <lgl>   <lgl>   <lgl>  
#>  1 SCHOOL L… 2005/2… STANDA… BC Pub… 005     Southe… 005010… Sparwo… NA      TRUE    NA      NA     
#>  2 SCHOOL L… 2006/2… STANDA… BC Pub… 005     Southe… 005010… Sparwo… NA      TRUE    NA      NA     
#>  3 SCHOOL L… 2007/2… STANDA… BC Pub… 005     Southe… 005010… Sparwo… NA      TRUE    NA      NA     
#>  4 SCHOOL L… 2005/2… STANDA… BC Pub… 005     Southe… 005010… Jaffra… NA      TRUE    NA      NA     
#>  5 SCHOOL L… 2006/2… STANDA… BC Pub… 005     Southe… 005010… Jaffra… NA      TRUE    NA      NA     
#>  6 SCHOOL L… 2007/2… STANDA… BC Pub… 005     Southe… 005010… Jaffra… NA      TRUE    NA      NA     
#>  7 SCHOOL L… 2008/2… STANDA… BC Pub… 005     Southe… 005010… Jaffra… NA      TRUE    NA      NA     
#>  8 SCHOOL L… 2009/2… STANDA… BC Pub… 005     Southe… 005010… Jaffra… NA      TRUE    NA      NA     
#>  9 SCHOOL L… 2010/2… STANDA… BC Pub… 005     Southe… 005010… Jaffra… NA      TRUE    NA      NA     
#> 10 SCHOOL L… 2011/2… STANDA… BC Pub… 005     Southe… 005010… Jaffra… NA      TRUE    NA      NA     
#> # … with 16,142 more rows, 12 more variables: `Has Prog Francophone` <lgl>,
#> #   `Has Any French Immersion Prog` <lgl>, `Has Any French Prog` <lgl>,
#> #   `Has Aborig Supp Services` <lgl>, `Has Other Appr Aborig Prog` <lgl>,
#> #   `Has Aborig Lang And Cult` <lgl>, `Has Continuing Ed Prog` <lgl>,
#> #   `Has Distributed Learn Prog` <lgl>, `Has Career Prep Prog` <lgl>, `Has Coop Prog` <lgl>,
#> #   `Has Apprenticeship Prog` <lgl>, `Has Career Technical Prog` <lgl>, and abbreviated variable
#> #   names ¹​`Data Level`, ²​`School Year`, ³​`Facility Type`, ⁴​`Public Or Independent`, …
```
…
## Get the metadata for the B.C. Regional Districts catalogue record
bc_regional_districts_metadata <- bcdc_get_record("d1aff64e-dbfe-45a6-af97-582b7f6418b9")

## We can see in the search results, and in the metadata record, that this record has a `"wms"`
## resource format, indicating that it is available as a Web Feature Service and thus
## we can query it using `bcdc_query_geodata()`

## Have a quick look at the geospatial columns to help with filter or select
bcdc_describe_feature(bc_regional_districts_metadata)
#> # A tibble: 21 × 5
#>    col_name                 sticky remote_col_type local_col_type column_comments                   
#>    <chr>                    <lgl>  <chr>           <chr>          <chr>                             
#>  1 id                       TRUE   xsd:string      character       <NA>                             
#>  2 LGL_ADMIN_AREA_ID        TRUE   xsd:decimal     numeric        "An operationally-generated uniqu…
#>  3 ADMIN_AREA_NAME          FALSE  xsd:string      character      "The authoritative, officially ap…
#>  4 ADMIN_AREA_ABBREVIATION  FALSE  xsd:string      character      "A short form or commonly-known a…
#>  5 ADMIN_AREA_BOUNDARY_TYPE FALSE  xsd:string      character      "BOUNDARY TYPE is a high-level gr…
#>  6 ADMIN_AREA_GROUP_NAME    FALSE  xsd:string      character      "The name given to the larger adm…
#>  7 CHANGE_REQUESTED_ORG     FALSE  xsd:string      character      "The government acronym of the Mi…
#>  8 UPDATE_TYPE              FALSE  xsd:string      character      "A short description of the lates…
#>  9 WHEN_UPDATED             FALSE  xsd:date        date           "The date and time the record was…
#> 10 MAP_STATUS               FALSE  xsd:string      character      "That the digital map has been ap…
#> # … with 11 more rows
…
