…
## Using B.C. Geographic Warehouse (BCGW) layer names

If you are familiar with the [B.C. Geographic Warehouse (BCGW)](https://www2.gov.bc.ca/gov/content/data/finding-and-sharing/bc-geographic-warehouse),
you may already know the name of a layer that you want from the BCGW.
`bcdc_query_geodata()` (as well as all other related functions)
supports supplying that name directly. For example, the
[record for the B.C. airports layer](https://catalogue.data.gov.bc.ca/dataset/bc-airports#object-description)
shows that the object name is `WHSE_IMAGERY_AND_BASE_MAPS.GSR_AIRPORTS_SVW`, and
we can use that in `bcdc_query_geodata()`:


``` r
# Look at the columns available:
bcdc_describe_feature("WHSE_IMAGERY_AND_BASE_MAPS.GSR_AIRPORTS_SVW")
#> # A tibble: 42 × 5
#>    col_name                      sticky remote_col_type local_col_type column_comments              
#>    <chr>                         <lgl>  <chr>           <chr>          <chr>                        
#>  1 id                            TRUE   xsd:string      character      <NA>                         
#>  2 CUSTODIAN_ORG_DESCRIPTION     TRUE   xsd:string      character      CUSTODIAN_ORG_DESCRIPTION co…
#>  3 BUSINESS_CATEGORY_CLASS       TRUE   xsd:string      character      BUSINESS_CATEGORY_CLASS desi…
#>  4 BUSINESS_CATEGORY_DESCRIPTION TRUE   xsd:string      character      BUSINESS_CATEGORY_DESCRIPTIO…
#>  5 OCCUPANT_TYPE_DESCRIPTION     TRUE   xsd:string      character      OCCUPANT_TYPE_DESCRIPTION co…
#>  6 SOURCE_DATA_ID                TRUE   xsd:string      character      SOURCE_DATA_ID is a unique o…
#>  7 SUPPLIED_SOURCE_ID_IND        TRUE   xsd:string      character      SUPPLIED_SOURCE_ID_IND is an…
#>  8 AIRPORT_NAME                  TRUE   xsd:string      character      AIRPORT_NAME is a business n…
#>  9 DESCRIPTION                   FALSE  xsd:string      character      DESCRIPTION describes the Oc…
#> 10 PHYSICAL_ADDRESS              FALSE  xsd:string      character      PHYSICAL_ADDRESS contains th…
#> # ℹ 32 more rows
…
