…
```r
## Get the metadata for the B.C. Regional Districts catalogue record
bc_regional_districts_metadata <- bcdc_get_record("d1aff64e-dbfe-45a6-af97-582b7f6418b9")

## Have a quick look at the geospatial columns to help with filter or select
bcdc_describe_feature(bc_regional_districts_metadata)
```

```
## # A tibble: 21 x 4
##    col_name                 sticky remote_col_type local_col_type
##    <chr>                    <lgl>  <chr>           <chr>         
##  1 id                       FALSE  xsd:string      character     
##  2 LGL_ADMIN_AREA_ID        FALSE  xsd:decimal     numeric       
##  3 ADMIN_AREA_NAME          TRUE   xsd:string      character     
##  4 ADMIN_AREA_ABBREVIATION  TRUE   xsd:string      character     
##  5 ADMIN_AREA_BOUNDARY_TYPE TRUE   xsd:string      character     
##  6 ADMIN_AREA_GROUP_NAME    TRUE   xsd:string      character     
##  7 CHANGE_REQUESTED_ORG     TRUE   xsd:string      character     
##  8 UPDATE_TYPE              TRUE   xsd:string      character     
##  9 WHEN_UPDATED             TRUE   xsd:date        date          
## 10 MAP_STATUS               TRUE   xsd:string      character     
## # ... with 11 more rows
```
…
