Get Started with bcdata • bcdata
…
bcdc_get_data()

Once you have located the B.C. Data Catalogue record with the data
you want, you can use bcdata::bcdc_get_data() to download
and read the data from the record. You can use the record name,
permanent ID or the result from bcdc_get_record(). Let’s
look at the B.C. Highway Web Cameras data:

## Get the data resource for the `bc-highway-cams` catalogue record
bcdc_get_data("bc-highway-cams")
#> # A tibble: 1,007 × 13
#>    links_bchighwaycam               links_imageDisplay links_imageThumbnail links_replayTheDay    id
#>    <chr>                            <chr>              <chr>                <chr>              <dbl>
#>  1 https://images.drivebc.ca/bchig… https://images.dr… https://images.driv… https://images.dr…     2
#>  2 https://images.drivebc.ca/bchig… https://images.dr… https://images.driv… https://images.dr…     5
#>  3 https://images.drivebc.ca/bchig… https://images.dr… https://images.driv… https://images.dr…     6
#>  4 https://images.drivebc.ca/bchig… https://images.dr… https://images.driv… https://images.dr…     7
#>  5 https://images.drivebc.ca/bchig… https://images.dr… https://images.driv… https://images.dr…     8
#>  6 https://images.drivebc.ca/bchig… https://images.dr… https://images.driv… https://images.dr…     9
#>  7 https://images.drivebc.ca/bchig… https://images.dr… https://images.driv… https://images.dr…    10
#>  8 https://images.drivebc.ca/bchig… https://images.dr… https://images.driv… https://images.dr…    11
#>  9 https://images.drivebc.ca/bchig… https://images.dr… https://images.driv… https://images.dr…    12
#> 10 https://images.drivebc.ca/bchig… https://images.dr… https://images.driv… https://images.dr…    13
#> # ℹ 997 more rows
#> # ℹ 8 more variables: highway_number <chr>, highway_locationDescription <chr>, camName <chr>,
#> #   caption <chr>, credit <chr>, orientation <chr>, latitude <dbl>, longitude <dbl>

## OR use the permanent ID, which is better for scripts or non-interactive use
bcdc_get_data("6b39a910-6c77-476f-ac96-7b4f18849b1c")
#> # A tibble: 1,007 × 13
#>    links_bchighwaycam               links_imageDisplay links_imageThumbnail links_replayTheDay    id
#>    <chr>                            <chr>              <chr>                <chr>              <dbl>
#>  1 https://images.drivebc.ca/bchig… https://images.dr… https://images.driv… https://images.dr…     2
#>  2 https://images.drivebc.ca/bchig… https://images.dr… https://images.driv… https://images.dr…     5
#>  3 https://images.drivebc.ca/bchig… https://images.dr… https://images.driv… https://images.dr…     6
#>  4 https://images.drivebc.ca/bchig… https://images.dr… https://images.driv… https://images.dr…     7
#>  5 https://images.drivebc.ca/bchig… https://images.dr… https://images.driv… https://images.dr…     8
#>  6 https://images.drivebc.ca/bchig… https://images.dr… https://images.driv… https://images.dr…     9
#>  7 https://images.drivebc.ca/bchig… https://images.dr… https://images.driv… https://images.dr…    10
#>  8 https://images.drivebc.ca/bchig… https://images.dr… https://images.driv… https://images.dr…    11
#>  9 https://images.drivebc.ca/bchig… https://images.dr… https://images.driv… https://images.dr…    12
#> 10 https://images.drivebc.ca/bchig… https://images.dr… https://images.driv… https://images.dr…    13
#> # ℹ 997 more rows
#> # ℹ 8 more variables: highway_number <chr>, highway_locationDescription <chr>, camName <chr>,
#> #   caption <chr>, credit <chr>, orientation <chr>, latitude <dbl>, longitude <dbl>

## OR use the result from bcdc_get_record()
my_record <- bcdc_get_record("6b39a910-6c77-476f-ac96-7b4f18849b1c")
bcdc_get_data(my_record)
#> # A tibble: 1,007 × 13
#>    links_bchighwaycam               links_imageDisplay links_imageThumbnail links_replayTheDay    id
#>    <chr>                            <chr>              <chr>                <chr>              <dbl>
#>  1 https://images.drivebc.ca/bchig… https://images.dr… https://images.driv… https://images.dr…     2
#>  2 https://images.drivebc.ca/bchig… https://images.dr… https://images.driv… https://images.dr…     5
#>  3 https://images.drivebc.ca/bchig… https://images.dr… https://images.driv… https://images.dr…     6
#>  4 https://images.drivebc.ca/bchig… https://images.dr… https://images.driv… https://images.dr…     7
#>  5 https://images.drivebc.ca/bchig… https://images.dr… https://images.driv… https://images.dr…     8
#>  6 https://images.drivebc.ca/bchig… https://images.dr… https://images.driv… https://images.dr…     9
#>  7 https://images.drivebc.ca/bchig… https://images.dr… https://images.driv… https://images.dr…    10
#>  8 https://images.drivebc.ca/bchig… https://images.dr… https://images.driv… https://images.dr…    11
#>  9 https://images.drivebc.ca/bchig… https://images.dr… https://images.driv… https://images.dr…    12
#> 10 https://images.drivebc.ca/bchig… https://images.dr… https://images.driv… https://images.dr…    13
#> # ℹ 997 more rows
#> # ℹ 8 more variables: highway_number <chr>, highway_locationDescription <chr>, camName <chr>,
#> #   caption <chr>, credit <chr>, orientation <chr>, latitude <dbl>, longitude <dbl>
…
We see there are two data files or resources available in this
record, so we need to tell bcdc_get_data() which one we
want. When used interactively, bcdc_get_data() will prompt
you with the list of available resources through bcdata and
ask you to select the resource you want. The resource ID for each data
set is available in the metadata record ☝️:

## Get the txt data resource from the `bc-schools-programs-offered-in-schools`
## catalogue record
bcdc_get_data("b1f27d1c-244a-410e-a361-931fac62a524", resource = 'a393f8cf-51ec-42c6-8449-4cea4c75385c')
#> # A tibble: 16,152 × 24
#>    `Data Level` `School Year` `Facility Type` `Public Or Independent` `District Number`
#>    <chr>        <chr>         <chr>           <chr>                   <chr>            
#>  1 SCHOOL LEVEL 2005/2006     STANDARD        BC Public School        005              
#>  2 SCHOOL LEVEL 2006/2007     STANDARD        BC Public School        005              
#>  3 SCHOOL LEVEL 2007/2008     STANDARD        BC Public School        005              
#>  4 SCHOOL LEVEL 2005/2006     STANDARD        BC Public School        005              
#>  5 SCHOOL LEVEL 2006/2007     STANDARD        BC Public School        005              
#>  6 SCHOOL LEVEL 2007/2008     STANDARD        BC Public School        005              
#>  7 SCHOOL LEVEL 2008/2009     STANDARD        BC Public School        005              
#>  8 SCHOOL LEVEL 2009/2010     STANDARD        BC Public School        005              
#>  9 SCHOOL LEVEL 2010/2011     STANDARD        BC Public School        005              
#> 10 SCHOOL LEVEL 2011/2012     STANDARD        BC Public School        005              
#> # ℹ 16,142 more rows
#> # ℹ 19 more variables: `District Name` <chr>, `School Number` <chr>, `School Name` <chr>,
#> #   `Has Eng Lang Learner Prog` <lgl>, `Has Core French` <lgl>, `Has Early French Immersion` <lgl>,
#> #   `Has Late French Immersion` <lgl>, `Has Prog Francophone` <lgl>,
#> #   `Has Any French Immersion Prog` <lgl>, `Has Any French Prog` <lgl>,
#> #   `Has Aborig Supp Services` <lgl>, `Has Other Appr Aborig Prog` <lgl>,
#> #   `Has Aborig Lang And Cult` <lgl>, `Has Continuing Ed Prog` <lgl>, …
…
## Get the metadata for the B.C. Regional Districts catalogue record
bc_regional_districts_metadata <- bcdc_get_record("d1aff64e-dbfe-45a6-af97-582b7f6418b9")

## We can see in the search results, and in the metadata record, that this record has a `"wms"`
## resource format, indicating that it is available as a Web Feature Service and thus
## we can query it using `bcdc_query_geodata()`

## Have a quick look at the geospatial columns to help with filter or select
bcdc_describe_feature(bc_regional_districts_metadata)
#> # A tibble: 21 × 5
#>    col_name                 sticky remote_col_type local_col_type column_comments                   
#>    <chr>                    <lgl>  <chr>           <chr>          <chr>                             
#>  1 id                       TRUE   xsd:string      character       <NA>                             
#>  2 LGL_ADMIN_AREA_ID        TRUE   xsd:decimal     numeric        "An operationally-generated uniqu…
#>  3 ADMIN_AREA_NAME          FALSE  xsd:string      character      "The authoritative, officially ap…
#>  4 ADMIN_AREA_ABBREVIATION  FALSE  xsd:string      character      "A short form or commonly-known a…
#>  5 ADMIN_AREA_BOUNDARY_TYPE FALSE  xsd:string      character      "BOUNDARY TYPE is a high-level gr…
#>  6 ADMIN_AREA_GROUP_NAME    FALSE  xsd:string      character      "The name given to the larger adm…
#>  7 CHANGE_REQUESTED_ORG     FALSE  xsd:string      character      "The government acronym of the Mi…
#>  8 UPDATE_TYPE              FALSE  xsd:string      character      "A short description of the lates…
#>  9 WHEN_UPDATED             FALSE  xsd:date        date           "The date and time the record was…
#> 10 MAP_STATUS               FALSE  xsd:string      character      "That the digital map has been ap…
#> # ℹ 11 more rows
…
