Describe the attributes of a Web Feature Service — bcdc_describe_feature • bcdata
…
sticky: whether a column can be separated from the record in a Web Feature Service call via the dplyr::select method

remote_col_type: class of what is return by the web feature service

local_col_type: the column class in R

column_comments: additional metadata specific to that column

    Examples

# \donttest{
try(
  bcdc_describe_feature("bc-airports")
)
#> # A tibble: 42 × 5
#>    col_name            sticky remote_col_type local_col_type
#>    <chr>               <lgl>  <chr>           <chr>         
#>  1 id                  TRUE   xsd:string      character     
#>  2 CUSTODIAN_ORG_DESC… TRUE   xsd:string      character     
#>  3 BUSINESS_CATEGORY_… TRUE   xsd:string      character     
#>  4 BUSINESS_CATEGORY_… TRUE   xsd:string      character     
#>  5 OCCUPANT_TYPE_DESC… TRUE   xsd:string      character     
#>  6 SOURCE_DATA_ID      TRUE   xsd:string      character     
#>  7 SUPPLIED_SOURCE_ID… TRUE   xsd:string      character     
#>  8 AIRPORT_NAME        TRUE   xsd:string      character     
#>  9 DESCRIPTION         FALSE  xsd:string      character     
#> 10 PHYSICAL_ADDRESS    FALSE  xsd:string      character     
#> # ℹ 32 more rows
#> # ℹ 1 more variable: column_comments <chr>

try(
  bcdc_describe_feature("WHSE_IMAGERY_AND_BASE_MAPS.GSR_AIRPORTS_SVW")
)
#> # A tibble: 42 × 5
#>    col_name            sticky remote_col_type local_col_type
#>    <chr>               <lgl>  <chr>           <chr>         
#>  1 id                  TRUE   xsd:string      character     
#>  2 CUSTODIAN_ORG_DESC… TRUE   xsd:string      character     
#>  3 BUSINESS_CATEGORY_… TRUE   xsd:string      character     
#>  4 BUSINESS_CATEGORY_… TRUE   xsd:string      character     
#>  5 OCCUPANT_TYPE_DESC… TRUE   xsd:string      character     
#>  6 SOURCE_DATA_ID      TRUE   xsd:string      character     
#>  7 SUPPLIED_SOURCE_ID… TRUE   xsd:string      character     
#>  8 AIRPORT_NAME        TRUE   xsd:string      character     
#>  9 DESCRIPTION         FALSE  xsd:string      character     
#> 10 PHYSICAL_ADDRESS    FALSE  xsd:string      character     
#> # ℹ 32 more rows
#> # ℹ 1 more variable: column_comments <chr>
…
