Download and read a resource from a B.C. Data Catalogue record — bcdc_get_data • bcdata
…
    Examples

# \donttest{
# Using the record and resource ID:
try(
  bcdc_get_data(record = '76b1b7a3-2112-4444-857a-afccf7b20da8',
                resource = '4d0377d9-e8a1-429b-824f-0ce8f363512c')
)

#> Simple feature collection with 455 features and 41 fields
#> Geometry type: POINT
#> Dimension:     XY
#> Bounding box:  xmin: 406543.7 ymin: 367957.6 xmax: 1796645 ymax: 1689146
#> Projected CRS: NAD83 / BC Albers
#> # A tibble: 455 x 42
#>    id      CUSTODIAN_ORG_DES… BUSINESS_CATEGO… BUSINESS_CATEGO… OCCUPANT_TYPE_D…
#>  * <chr>   <chr>              <chr>            <chr>            <chr>           
#>  1 WHSE_I… "Ministry of Fore… airTransportati… Air Transportat… BC Airports     
#>  2 WHSE_I… "Ministry of Fore… airTransportati… Air Transportat… BC Airports     
#>  3 WHSE_I… "Ministry of Fore… airTransportati… Air Transportat… BC Airports     
#>  4 WHSE_I… "Ministry of Fore… airTransportati… Air Transportat… BC Airports     
#>  5 WHSE_I… "Ministry of Fore… airTransportati… Air Transportat… BC Airports     
#>  6 WHSE_I… "Ministry of Fore… airTransportati… Air Transportat… BC Airports     
#>  7 WHSE_I… "Ministry of Fore… airTransportati… Air Transportat… BC Airports     
#>  8 WHSE_I… "Ministry of Fore… airTransportati… Air Transportat… BC Airports     
#>  9 WHSE_I… "Ministry of Fore… airTransportati… Air Transportat… BC Airports     
#> 10 WHSE_I… "Ministry of Fore… airTransportati… Air Transportat… BC Airports     
#> # … with 445 more rows, and 37 more variables: SOURCE_DATA_ID <chr>,
#> #   SUPPLIED_SOURCE_ID_IND <chr>, AIRPORT_NAME <chr>, DESCRIPTION <chr>,
#> #   PHYSICAL_ADDRESS <chr>, ALIAS_ADDRESS <chr>, STREET_ADDRESS <chr>,
#> #   POSTAL_CODE <chr>, LOCALITY <chr>, CONTACT_PHONE <chr>,
#> #   CONTACT_EMAIL <chr>, CONTACT_FAX <chr>, WEBSITE_URL <chr>, IMAGE_URL <chr>,
#> #   LATITUDE <dbl>, LONGITUDE <dbl>, KEYWORDS <chr>, DATE_UPDATED <date>,
#> #   SITE_GEOCODED_IND <chr>, AERODROME_STATUS <chr>, AIRCRAFT_ACCESS_IND <chr>,
#> #   DATA_SOURCE <chr>, DATA_SOURCE_YEAR <chr>, ELEVATION <dbl>,
#> #   FUEL_AVAILABILITY_IND <chr>, HELICOPTER_ACCESS_IND <chr>, IATA_CODE <chr>,
…
try(
  bcdc_get_data('1d21922b-ec4f-42e5-8f6b-bf320a286157')
)

#> Reading the data using the read_csv function from the readr package.
#> 
#> ── Column specification ────────────────────────────────────────────────────────
#> cols(
#>   CITY = col_character(),
#>   NAME = col_character(),
#>   ADDRESS = col_character(),
#>   POSTALCODE = col_character()
#> )
#> # A tibble: 357 x 4
#>    CITY        NAME                    ADDRESS                        POSTALCODE
#>    <chr>       <chr>                   <chr>                          <chr>     
#>  1 PRINCE GEO… Pacific Western Brewin… 641 NORTH NECHAKO RD           V2K4M4    
#>  2 OSOYOOS     Bordertown Vineyards    9140 92ND AVENUE               V0H1V2    
#>  3 CHILLIWACK  Whispering Horse Winery 43721 VEDDER MTN. ROAD         V2R4C5    
#>  4 KELOWNA     Okanaganvilla Estate W… 3240 POOLEY ROAD               V1W4G7    
#>  5 OLIVER      Church & State Wines (… 31120 87TH STREET              V0H1T0    
#>  6 KEREMEOS    Corcelettes Estate Win… 2582 UPPER BENCH ROAD          V0X1N4    
#>  7 DUNCAN      Blue Grouse Vineyards   4365 BLUE GROUSE ROAD AND 218… V9L6M3    
#>  8 VANCOUVER   City Side Winery        328 WEST 2ND AVENUE            V5Y1C8    
#>  9 WEST KELOW… Volcanic Hills Estate … 2845 BOUCHERIE ROAD            V1Z2G6    
#> 10 OLIVER      Orchard Hill Estate Ci… 3480 FRUITVALE WAY             V0H1T0    
#> # … with 347 more rows
…
try(
  bcdc_get_data(record)
)

#> Reading the data using the read_csv function from the readr package.
#> 
#> ── Column specification ────────────────────────────────────────────────────────
#> cols(
#>   CITY = col_character(),
#>   NAME = col_character(),
#>   ADDRESS = col_character(),
#>   POSTALCODE = col_character()
#> )
#> # A tibble: 357 x 4
#>    CITY        NAME                    ADDRESS                        POSTALCODE
#>    <chr>       <chr>                   <chr>                          <chr>     
#>  1 PRINCE GEO… Pacific Western Brewin… 641 NORTH NECHAKO RD           V2K4M4    
#>  2 OSOYOOS     Bordertown Vineyards    9140 92ND AVENUE               V0H1V2    
#>  3 CHILLIWACK  Whispering Horse Winery 43721 VEDDER MTN. ROAD         V2R4C5    
#>  4 KELOWNA     Okanaganvilla Estate W… 3240 POOLEY ROAD               V1W4G7    
#>  5 OLIVER      Church & State Wines (… 31120 87TH STREET              V0H1T0    
#>  6 KEREMEOS    Corcelettes Estate Win… 2582 UPPER BENCH ROAD          V0X1N4    
#>  7 DUNCAN      Blue Grouse Vineyards   4365 BLUE GROUSE ROAD AND 218… V9L6M3    
#>  8 VANCOUVER   City Side Winery        328 WEST 2ND AVENUE            V5Y1C8    
#>  9 WEST KELOW… Volcanic Hills Estate … 2845 BOUCHERIE ROAD            V1Z2G6    
#> 10 OLIVER      Orchard Hill Estate Ci… 3480 FRUITVALE WAY             V0H1T0    
#> # … with 347 more rows

# Using a BCGW name
try(
  bcdc_get_data("WHSE_IMAGERY_AND_BASE_MAPS.GSR_AIRPORTS_SVW")
)

#> Simple feature collection with 455 features and 41 fields
#> Geometry type: POINT
#> Dimension:     XY
#> Bounding box:  xmin: 406543.7 ymin: 367957.6 xmax: 1796645 ymax: 1689146
#> Projected CRS: NAD83 / BC Albers
#> # A tibble: 455 x 42
#>    id      CUSTODIAN_ORG_DES… BUSINESS_CATEGO… BUSINESS_CATEGO… OCCUPANT_TYPE_D…
#>  * <chr>   <chr>              <chr>            <chr>            <chr>           
#>  1 WHSE_I… "Ministry of Fore… airTransportati… Air Transportat… BC Airports     
#>  2 WHSE_I… "Ministry of Fore… airTransportati… Air Transportat… BC Airports     
#>  3 WHSE_I… "Ministry of Fore… airTransportati… Air Transportat… BC Airports     
#>  4 WHSE_I… "Ministry of Fore… airTransportati… Air Transportat… BC Airports     
#>  5 WHSE_I… "Ministry of Fore… airTransportati… Air Transportat… BC Airports     
#>  6 WHSE_I… "Ministry of Fore… airTransportati… Air Transportat… BC Airports     
#>  7 WHSE_I… "Ministry of Fore… airTransportati… Air Transportat… BC Airports     
#>  8 WHSE_I… "Ministry of Fore… airTransportati… Air Transportat… BC Airports     
#>  9 WHSE_I… "Ministry of Fore… airTransportati… Air Transportat… BC Airports     
#> 10 WHSE_I… "Ministry of Fore… airTransportati… Air Transportat… BC Airports     
#> # … with 445 more rows, and 37 more variables: SOURCE_DATA_ID <chr>,
#> #   SUPPLIED_SOURCE_ID_IND <chr>, AIRPORT_NAME <chr>, DESCRIPTION <chr>,
#> #   PHYSICAL_ADDRESS <chr>, ALIAS_ADDRESS <chr>, STREET_ADDRESS <chr>,
#> #   POSTAL_CODE <chr>, LOCALITY <chr>, CONTACT_PHONE <chr>,
#> #   CONTACT_EMAIL <chr>, CONTACT_FAX <chr>, WEBSITE_URL <chr>, IMAGE_URL <chr>,
#> #   LATITUDE <dbl>, LONGITUDE <dbl>, KEYWORDS <chr>, DATE_UPDATED <date>,
#> #   SITE_GEOCODED_IND <chr>, AERODROME_STATUS <chr>, AIRCRAFT_ACCESS_IND <chr>,
#> #   DATA_SOURCE <chr>, DATA_SOURCE_YEAR <chr>, ELEVATION <dbl>,
#> #   FUEL_AVAILABILITY_IND <chr>, HELICOPTER_ACCESS_IND <chr>, IATA_CODE <chr>,
…
#> Reading the data using the read_sf function from the sf package.
#> Simple feature collection with 6106 features and 1 field
#> Geometry type: LINESTRING
#> Dimension:     XY
#> Bounding box:  xmin: 529420.8 ymin: 367780.7 xmax: 1203949 ymax: 1157953
#> Projected CRS: NAD83 / BC Albers
#> # A tibble: 6,106 x 2
#>    SHAPE_Length                                                             geom
#>           <dbl>                                                 <LINESTRING [m]>
#>  1         79.2 (1183654 367787.5, 1183637 367780.7, 1183633 367785.6, 1183637 …
#>  2         92.8 (1178975 369462.2, 1178962 369460.6, 1178956 369464.4, 1178958 …
#>  3         71.0 (1178340 369486.6, 1178335 369481.4, 1178324 369485.9, 1178321 …
#>  4         80.2 (1182295 369909.3, 1182289 369909.1, 1182284 369914, 1182285 36…
#>  5         90.7 (1177992 370787.7, 1177986 370785.4, 1177979 370787.2, 1177977 …
#>  6         94.3 (1178597 370831.9, 1178591 370831.7, 1178585 370833.4, 1178582 …
#>  7         75.3 (1178008 371008.1, 1178002 371005.8, 1177998 371010.8, 1177996 …
#>  8         77.4 (1178022 371104.5, 1178017 371100.4, 1178011 371105.1, 1178007 …
#>  9         76.7 (1176492 371248.6, 1176485 371248.3, 1176478 371250, 1176475 37…
#> 10         87.2 (1178786 371574.1, 1178778 371572.7, 1178773 371576.5, 1178772 …
#> # … with 6,096 more rows
…
#> This .xlsx resource contains the following sheets: 
#>  'Population'
#>  'Gender & Age Distribution'
#>  'Median, Average & Growth Rates'
#>  'Households'
#>  'Household Size'
#> Defaulting to the 'Population' sheet. See ?bcdc_get_data for examples on how to specify a sheet.
#> New names:
#> * `` -> ...2
#> * `` -> ...3
#> * `` -> ...4
#> * `` -> ...5
#> * `` -> ...6
#> * ...
#> # A tibble: 901 x 11
#>    `Regional Distri… ...2  ...3  ...4  ...5  ...6  ...7  ...8  ...9  ...10 ...11
#>    <chr>             <chr> <chr> <chr> <chr> <chr> <chr> <chr> <chr> <chr> <chr>
#>  1 RD Code           Regi… Sex   Year  Age … 15-19 20-24 25-64 65-84 85+   All …
#>  2 1000              East… Male  2019  4863  1651  1838  18148 5793  543   32836
#>  3 1000              East… Male  2020  4850  1607  1812  18083 6022  562   32936
#>  4 1000              East… Male  2021  4850  1569  1819  17918 6295  592   33043
#>  5 1000              East… Male  2022  4785  1594  1693  17942 6533  594   33141
#>  6 1000              East… Male  2023  4756  1577  1622  17910 6794  579   33238
#>  7 1000              East… Male  2024  4731  1574  1561  17848 7023  593   33330
#>  8 1000              East… Male  2025  4673  1604  1512  17730 7226  670   33415
#>  9 1000              East… Male  2026  4590  1659  1483  17589 7495  668   33484
#> 10 1000              East… Male  2027  4515  1645  1510  17430 7705  731   33536
#> # … with 891 more rows
…
