…
## Examples

``` r
# \donttest{
# Using the record and resource ID:
try(
  bcdc_get_data(record = '76b1b7a3-2112-4444-857a-afccf7b20da8',
                resource = '4d0377d9-e8a1-429b-824f-0ce8f363512c')
)
#> Simple feature collection with 451 features and 41 fields
#> Geometry type: POINT
#> Dimension:     XY
#> Bounding box:  xmin: 405790.2 ymin: 367957.6 xmax: 1796772 ymax: 1688614
#> Projected CRS: NAD83 / BC Albers
#> # A tibble: 451 × 42
#>    id          CUSTODIAN_ORG_DESCRI…¹ BUSINESS_CATEGORY_CL…²
#>  * <chr>       <chr>                  <chr>                 
#>  1 WHSE_IMAGE… "Ministry of Forest, … airTransportation     
#>  2 WHSE_IMAGE… "Ministry of Forest, … airTransportation     
#>  3 WHSE_IMAGE… "Ministry of Forest, … airTransportation     
#>  4 WHSE_IMAGE… "Ministry of Forest, … airTransportation     
#>  5 WHSE_IMAGE… "Ministry of Forest, … airTransportation     
#>  6 WHSE_IMAGE… "Ministry of Forest, … airTransportation     
#>  7 WHSE_IMAGE… "Ministry of Forest, … airTransportation     
#>  8 WHSE_IMAGE… "Ministry of Forest, … airTransportation     
#>  9 WHSE_IMAGE… "Ministry of Forest, … airTransportation     
#> 10 WHSE_IMAGE… "Ministry of Forest, … airTransportation     
#> # ℹ 441 more rows
#> # ℹ abbreviated names: ¹​CUSTODIAN_ORG_DESCRIPTION,
#> #   ²​BUSINESS_CATEGORY_CLASS
#> # ℹ 39 more variables: BUSINESS_CATEGORY_DESCRIPTION <chr>,
#> #   OCCUPANT_TYPE_DESCRIPTION <chr>, SOURCE_DATA_ID <chr>,
#> #   SUPPLIED_SOURCE_ID_IND <chr>, AIRPORT_NAME <chr>,
#> #   DESCRIPTION <chr>, PHYSICAL_ADDRESS <chr>, …
…
try(
  bcdc_get_data(record)
)
#> Error : There are no resources that bcdata can download from this record

# Using a BCGW name
try(
  bcdc_get_data("WHSE_IMAGERY_AND_BASE_MAPS.GSR_AIRPORTS_SVW")
)
#> Simple feature collection with 451 features and 41 fields
#> Geometry type: POINT
#> Dimension:     XY
#> Bounding box:  xmin: 405790.2 ymin: 367957.6 xmax: 1796772 ymax: 1688614
#> Projected CRS: NAD83 / BC Albers
#> # A tibble: 451 × 42
#>    id          CUSTODIAN_ORG_DESCRI…¹ BUSINESS_CATEGORY_CL…²
#>  * <chr>       <chr>                  <chr>                 
#>  1 WHSE_IMAGE… "Ministry of Forest, … airTransportation     
#>  2 WHSE_IMAGE… "Ministry of Forest, … airTransportation     
#>  3 WHSE_IMAGE… "Ministry of Forest, … airTransportation     
#>  4 WHSE_IMAGE… "Ministry of Forest, … airTransportation     
#>  5 WHSE_IMAGE… "Ministry of Forest, … airTransportation     
#>  6 WHSE_IMAGE… "Ministry of Forest, … airTransportation     
#>  7 WHSE_IMAGE… "Ministry of Forest, … airTransportation     
#>  8 WHSE_IMAGE… "Ministry of Forest, … airTransportation     
#>  9 WHSE_IMAGE… "Ministry of Forest, … airTransportation     
#> 10 WHSE_IMAGE… "Ministry of Forest, … airTransportation     
#> # ℹ 441 more rows
#> # ℹ abbreviated names: ¹​CUSTODIAN_ORG_DESCRIPTION,
#> #   ²​BUSINESS_CATEGORY_CLASS
#> # ℹ 39 more variables: BUSINESS_CATEGORY_DESCRIPTION <chr>,
#> #   OCCUPANT_TYPE_DESCRIPTION <chr>, SOURCE_DATA_ID <chr>,
#> #   SUPPLIED_SOURCE_ID_IND <chr>, AIRPORT_NAME <chr>,
#> #   DESCRIPTION <chr>, PHYSICAL_ADDRESS <chr>, …
…
  bcdc_get_data(
    record = '30aeb5c1-4285-46c8-b60b-15b1a6f4258b',
    resource = '3d72cf36-ab53-4a2a-9988-a883d7488384',
    layer = 'BC_Boundary_Terrestrial_Line',
    query = "SELECT SHAPE_Length, geom FROM BC_Boundary_Terrestrial_Line WHERE SHAPE_Length < 100"
  )
)
#> Reading the data using the read_sf function from the sf package.
#> Warning: argument layer is ignored when query is specified
#> Simple feature collection with 6106 features and 1 field
#> Geometry type: LINESTRING
#> Dimension:     XY
#> Bounding box:  xmin: 529420.8 ymin: 367780.7 xmax: 1203949 ymax: 1157953
#> Projected CRS: NAD83 / BC Albers
#> # A tibble: 6,106 × 2
#>    SHAPE_Length                                         geom
#>           <dbl>                             <LINESTRING [m]>
#>  1         79.2 (1183654 367787.5, 1183637 367780.7, 118363…
#>  2         92.8 (1178975 369462.2, 1178962 369460.6, 117895…
#>  3         71.0 (1178340 369486.6, 1178335 369481.4, 117832…
#>  4         80.2 (1182295 369909.3, 1182289 369909.1, 118228…
#>  5         90.7 (1177992 370787.7, 1177986 370785.4, 117797…
#>  6         94.3 (1178597 370831.9, 1178591 370831.7, 117858…
#>  7         75.3 (1178008 371008.1, 1178002 371005.8, 117799…
#>  8         77.4 (1178022 371104.5, 1178017 371100.4, 117801…
#>  9         76.7 (1176492 371248.6, 1176485 371248.3, 117647…
#> 10         87.2 (1178786 371574.1, 1178778 371572.7, 117877…
#> # ℹ 6,096 more rows
…
