Select columns from Web Service call — select.bcdc_promise • bcdata
…
bcdc_promise: select.bcdc_promise

    Examples

# \donttest{
try(
  feature_spec <- bcdc_describe_feature("bc-airports")
)

try(
  ## Columns that can selected:
  feature_spec[feature_spec$sticky == TRUE,]
)

#> # A tibble: 33 x 4
#>    col_name         sticky remote_col_type local_col_type
#>    <chr>            <lgl>  <chr>           <chr>         
#>  1 DESCRIPTION      TRUE   xsd:string      character     
#>  2 PHYSICAL_ADDRESS TRUE   xsd:string      character     
#>  3 ALIAS_ADDRESS    TRUE   xsd:string      character     
#>  4 STREET_ADDRESS   TRUE   xsd:string      character     
#>  5 POSTAL_CODE      TRUE   xsd:string      character     
#>  6 LOCALITY         TRUE   xsd:string      character     
#>  7 CONTACT_PHONE    TRUE   xsd:string      character     
#>  8 CONTACT_EMAIL    TRUE   xsd:string      character     
#>  9 CONTACT_FAX      TRUE   xsd:string      character     
#> 10 WEBSITE_URL      TRUE   xsd:string      character     
#> # … with 23 more rows
…
