Get started with bcdata • bcdata
…
bcdc_get_data()

One you have located the B.C. Data Catalogue record with the data you want, you can use bcdata::bcdc_get_data() to download and read the data from the record. You can use the record name, ID or the result from bcdc_get_record(). Let’s look at the B.C. Highway Web Cameras data:

## Get the data resource for the `bc-highway-cams` catalogue record
bcdc_get_data("bc-highway-cams") 
#> # A tibble: 871 x 19
#>    links_bchighway… links_imageDisp… links_imageThum… links_replayThe…
#>    <chr>            <chr>            <chr>            <chr>           
#>  1 http://images.d… http://images.d… http://images.d… http://images.d…
#>  2 http://images.d… http://images.d… http://images.d… http://images.d…
#>  3 http://images.d… http://images.d… http://images.d… http://images.d…
#>  4 http://images.d… http://images.d… http://images.d… http://images.d…
#>  5 http://images.d… http://images.d… http://images.d… http://images.d…
#>  6 http://images.d… http://images.d… http://images.d… http://images.d…
#>  7 http://images.d… http://images.d… http://images.d… http://images.d…
#>  8 http://images.d… http://images.d… http://images.d… http://images.d…
#>  9 http://images.d… http://images.d… http://images.d… http://images.d…
#> 10 http://images.d… http://images.d… http://images.d… http://images.d…
#> # … with 861 more rows, and 15 more variables: id <dbl>,
#> #   highway_number <chr>, highway_locationDescription <chr>,
#> #   camName <chr>, caption <chr>, credit <chr>, orientation <chr>,
#> #   latitude <dbl>, longitude <dbl>, imageStats_updatePeriodMean <chr>,
#> #   imageStats_updatePeriodStdDev <dbl>, markedDelayed <dbl>,
#> #   updatePeriodMean <dbl>, updatePeriodStdDev <dbl>, fetchMean <dbl>

## OR use the permanent ID, which is better for scripts or non-interactive use 
bcdc_get_data("6b39a910-6c77-476f-ac96-7b4f18849b1c")
#> # A tibble: 871 x 19
#>    links_bchighway… links_imageDisp… links_imageThum… links_replayThe…
#>    <chr>            <chr>            <chr>            <chr>           
#>  1 http://images.d… http://images.d… http://images.d… http://images.d…
#>  2 http://images.d… http://images.d… http://images.d… http://images.d…
#>  3 http://images.d… http://images.d… http://images.d… http://images.d…
#>  4 http://images.d… http://images.d… http://images.d… http://images.d…
#>  5 http://images.d… http://images.d… http://images.d… http://images.d…
#>  6 http://images.d… http://images.d… http://images.d… http://images.d…
#>  7 http://images.d… http://images.d… http://images.d… http://images.d…
#>  8 http://images.d… http://images.d… http://images.d… http://images.d…
#>  9 http://images.d… http://images.d… http://images.d… http://images.d…
#> 10 http://images.d… http://images.d… http://images.d… http://images.d…
#> # … with 861 more rows, and 15 more variables: id <dbl>,
#> #   highway_number <chr>, highway_locationDescription <chr>,
#> #   camName <chr>, caption <chr>, credit <chr>, orientation <chr>,
#> #   latitude <dbl>, longitude <dbl>, imageStats_updatePeriodMean <chr>,
#> #   imageStats_updatePeriodStdDev <dbl>, markedDelayed <dbl>,
#> #   updatePeriodMean <dbl>, updatePeriodStdDev <dbl>, fetchMean <dbl>

## OR use the result from bcdc_get_record()
my_data <- bcdc_get_record("6b39a910-6c77-476f-ac96-7b4f18849b1c")
bcdc_get_data(my_data)
#> # A tibble: 871 x 19
#>    links_bchighway… links_imageDisp… links_imageThum… links_replayThe…
#>    <chr>            <chr>            <chr>            <chr>           
#>  1 http://images.d… http://images.d… http://images.d… http://images.d…
#>  2 http://images.d… http://images.d… http://images.d… http://images.d…
#>  3 http://images.d… http://images.d… http://images.d… http://images.d…
#>  4 http://images.d… http://images.d… http://images.d… http://images.d…
#>  5 http://images.d… http://images.d… http://images.d… http://images.d…
#>  6 http://images.d… http://images.d… http://images.d… http://images.d…
#>  7 http://images.d… http://images.d… http://images.d… http://images.d…
#>  8 http://images.d… http://images.d… http://images.d… http://images.d…
#>  9 http://images.d… http://images.d… http://images.d… http://images.d…
#> 10 http://images.d… http://images.d… http://images.d… http://images.d…
#> # … with 861 more rows, and 15 more variables: id <dbl>,
#> #   highway_number <chr>, highway_locationDescription <chr>,
#> #   camName <chr>, caption <chr>, credit <chr>, orientation <chr>,
#> #   latitude <dbl>, longitude <dbl>, imageStats_updatePeriodMean <chr>,
#> #   imageStats_updatePeriodStdDev <dbl>, markedDelayed <dbl>,
#> #   updatePeriodMean <dbl>, updatePeriodStdDev <dbl>, fetchMean <dbl>
…
We see there are two data files or resources available in this record, so we need to tell bcdc_get_data() which one we want. When used interactively, bcdc_get_data() will prompt you with the list of available resources through bcdata and ask you to select the resource you want. The full code—with the resource ID for each data set—is also available in the metdata record ☝️:

## Get the txt data resource from the `bc-schools-programs-offered-in-schools`
## catalogue record
bcdc_get_data("b1f27d1c-244a-410e-a361-931fac62a524", resource = 'a393f8cf-51ec-42c6-8449-4cea4c75385c')
#> # A tibble: 16,152 x 24
#>    `Data Level` `School Year` `Facility Type` `Public Or Inde…
#>    <chr>        <chr>         <chr>           <chr>           
#>  1 SCHOOL LEVEL 2005/2006     STANDARD        BC Public School
#>  2 SCHOOL LEVEL 2006/2007     STANDARD        BC Public School
#>  3 SCHOOL LEVEL 2007/2008     STANDARD        BC Public School
#>  4 SCHOOL LEVEL 2005/2006     STANDARD        BC Public School
#>  5 SCHOOL LEVEL 2006/2007     STANDARD        BC Public School
#>  6 SCHOOL LEVEL 2007/2008     STANDARD        BC Public School
#>  7 SCHOOL LEVEL 2008/2009     STANDARD        BC Public School
#>  8 SCHOOL LEVEL 2009/2010     STANDARD        BC Public School
#>  9 SCHOOL LEVEL 2010/2011     STANDARD        BC Public School
#> 10 SCHOOL LEVEL 2011/2012     STANDARD        BC Public School
#> # … with 16,142 more rows, and 20 more variables: `District Number` <chr>,
#> #   `District Name` <chr>, `School Number` <chr>, `School Name` <chr>,
#> #   `Has Eng Lang Learner Prog` <lgl>, `Has Core French` <lgl>, `Has Early
#> #   French Immersion` <lgl>, `Has Late French Immersion` <lgl>, `Has Prog
#> #   Francophone` <lgl>, `Has Any French Immersion Prog` <lgl>, `Has Any
#> #   French Prog` <lgl>, `Has Aborig Supp Services` <lgl>, `Has Other Appr
#> #   Aborig Prog` <lgl>, `Has Aborig Lang And Cult` <lgl>, `Has Continuing
#> #   Ed Prog` <lgl>, `Has Distributed Learn Prog` <lgl>, `Has Career Prep
#> #   Prog` <lgl>, `Has Coop Prog` <lgl>, `Has Apprenticeship Prog` <lgl>,
…
