Querying Spatial Data with bcdata • bcdata
…
This output is what being created by the dplyr code outlined above.

Using B.C. Geographic Warehouse (BCGW) layer names

If you are familiar with the B.C. Geographic Warehouse (BCGW), you may already know the name of a layer that you want from the BCGW. bcdc_query_geodata() (as well as all other related functions) supports supplying that name directly. For example, the record for the B.C. airports layer shows that the object name is WHSE_IMAGERY_AND_BASE_MAPS.GSR_AIRPORTS_SVW, and we can use that in bcdc_query_geodata():

# Look at the columns available:
bcdc_describe_feature("WHSE_IMAGERY_AND_BASE_MAPS.GSR_AIRPORTS_SVW")
#> # A tibble: 42 x 4
#>    col_name                      selectable remote_col_type local_col_type
#>    <chr>                         <lgl>      <chr>           <chr>         
#>  1 id                            FALSE      xsd:string      character     
#>  2 CUSTODIAN_ORG_DESCRIPTION     FALSE      xsd:string      character     
#>  3 BUSINESS_CATEGORY_CLASS       FALSE      xsd:string      character     
#>  4 BUSINESS_CATEGORY_DESCRIPTION FALSE      xsd:string      character     
#>  5 OCCUPANT_TYPE_DESCRIPTION     FALSE      xsd:string      character     
#>  6 SOURCE_DATA_ID                FALSE      xsd:string      character     
#>  7 SUPPLIED_SOURCE_ID_IND        FALSE      xsd:string      character     
#>  8 AIRPORT_NAME                  FALSE      xsd:string      character     
#>  9 DESCRIPTION                   TRUE       xsd:string      character     
#> 10 PHYSICAL_ADDRESS              TRUE       xsd:string      character     
#> # … with 32 more rows
…
