Force collection of Web Service request from B.C. Data Catalogue — collect.bcdc_promise • bcdata
…
bcdc_promise: collect.bcdc_promise

    Examples

# \donttest{
bcdc_query_geodata("bc-airports") %>%
  collect()
#> Simple feature collection with 455 features and 41 fields
#> geometry type:  POINT
#> dimension:      XY
#> bbox:           xmin: 406543.7 ymin: 367957.6 xmax: 1796645 ymax: 1689146
#> epsg (SRID):    3005
#> proj4string:    +proj=aea +lat_1=50 +lat_2=58.5 +lat_0=45 +lon_0=-126 +x_0=1000000 +y_0=0 +ellps=GRS80 +towgs84=0,0,0,0,0,0,0 +units=m +no_defs
#> # A tibble: 455 x 42
#>    id    CUSTODIAN_ORG_D… BUSINESS_CATEGO… BUSINESS_CATEGO… OCCUPANT_TYPE_D…
#>  * <chr> <chr>            <chr>            <chr>            <chr>           
#>  1 WHSE… "Ministry of Fo… airTransportati… Air Transportat… BC Airports     
#>  2 WHSE… "Ministry of Fo… airTransportati… Air Transportat… BC Airports     
#>  3 WHSE… "Ministry of Fo… airTransportati… Air Transportat… BC Airports     
#>  4 WHSE… "Ministry of Fo… airTransportati… Air Transportat… BC Airports     
#>  5 WHSE… "Ministry of Fo… airTransportati… Air Transportat… BC Airports     
#>  6 WHSE… "Ministry of Fo… airTransportati… Air Transportat… BC Airports     
#>  7 WHSE… "Ministry of Fo… airTransportati… Air Transportat… BC Airports     
#>  8 WHSE… "Ministry of Fo… airTransportati… Air Transportat… BC Airports     
#>  9 WHSE… "Ministry of Fo… airTransportati… Air Transportat… BC Airports     
#> 10 WHSE… "Ministry of Fo… airTransportati… Air Transportat… BC Airports     
#> # … with 445 more rows, and 37 more variables: SOURCE_DATA_ID <chr>,
#> #   SUPPLIED_SOURCE_ID_IND <chr>, AIRPORT_NAME <chr>, DESCRIPTION <chr>,
#> #   PHYSICAL_ADDRESS <chr>, ALIAS_ADDRESS <chr>, STREET_ADDRESS <chr>,
#> #   POSTAL_CODE <chr>, LOCALITY <chr>, CONTACT_PHONE <chr>,
#> #   CONTACT_EMAIL <chr>, CONTACT_FAX <chr>, WEBSITE_URL <chr>, IMAGE_URL <chr>,
#> #   LATITUDE <dbl>, LONGITUDE <dbl>, KEYWORDS <chr>, DATE_UPDATED <date>,
#> #   SITE_GEOCODED_IND <chr>, AERODROME_STATUS <chr>, AIRCRAFT_ACCESS_IND <chr>,
#> #   DATA_SOURCE <chr>, DATA_SOURCE_YEAR <chr>, ELEVATION <dbl>,
#> #   FUEL_AVAILABILITY_IND <chr>, HELICOPTER_ACCESS_IND <chr>, IATA_CODE <chr>,
…
